{"results":
  [
    {
      "hora":"07:35",
      "fecha":"05/05/2016",
      "uid":"usuario",
      "biometrico":"BIOMETRICO1"
    },
    {
      "hora":"08:30",
      "fecha":"05/05/2016",
      "uid":"usuario",
      "biometrico":"BIOMETRICO1"
    },
    {
      "hora":"09:00",
      "fecha":"05/05/2016",
      "uid":"usuario",
      "biometrico":"BIOMETRICO1"
    },
    {
      "hora":"10:00",
      "fecha":"05/05/2016",
      "uid":"usuario",
      "biometrico":"BIOMETRICO2"
    },
    {
      "hora":"12:00",
      "fecha":"05/05/2016",
      "uid":"usuario",
      "biometrico":"BIOMETRICO1"
    },
    {
      "hora":"12:45",
      "fecha":"05/05/2016",
      "uid":"usuario",
      "biometrico":"BIOMETRICO1"
    },
    {
      "hora":"14:15",
      "fecha":"05/05/2016",
      "uid":"usuario",
      "biometrico":"BIOMETRICO1"
    },
    {
      "hora":"01:00",
      "fecha":"05/05/2016",
      "uid":"usuario",
      "biometrico":"BIOMETRICO1"
    },
    {
      "hora":"02:00",
      "fecha":"05/05/2016",
      "uid":"usuario",
      "biometrico":"BIOMETRICO1"
    },
    {
      "hora":"19:30",
      "fecha":"05/05/2016",
      "uid":"usuario",
      "biometrico":"BIOMETRICO1"
    },
    {
      "hora":"20:00",
      "fecha":"05/05/2016",
      "uid":"usuario",
      "biometrico":"BIOMETRICO1"
    },
    {
      "hora":"24:00",
      "fecha":"05/05/2016",
      "uid":"usuario",
      "biometrico":"BIOMETRICO1"
    }
  ]
}
